{
  "settingsReloadIntervalMinutes": 60,
  "fullscreen": false,
  "autoStart": false,
  "lazyLoadTabs": false,
  "closeExistingTabs": true,
  "websites": [
    {
      "url": "http://typhon.htmicron.com.br/opstatus/unid1",
      "duration": 53,
      "tabReloadIntervalSeconds": 600
    },
    {
      "url": "http://typhon.htmicron.com.br/opstatus/unid1",
      "duration": 60,
      "tabReloadIntervalSeconds": 600
    }
  ]
}
