{
  "settingsReloadIntervalMinutes": 60,
  "fullscreen": true,
  "autoStart": true,
  "lazyLoadTabs": false,
  "closeExistingTabs": true,
  "websites": [
    {
      "url": "http://typhon.htmicron.com.br/opstatus/unid2",
      "duration": 15,
      "tabReloadIntervalSeconds": 600
    },
    {
      "url": "http://web.if.htmicron.com.br/tracking/blueprint/unidade2",
      "duration": 20,
      "tabReloadIntervalSeconds": 0
    }
  ]
}
